Aula 16/simulation/qsim/Aula16.msim.vcd
$comment
	File created using the following command:
		vcd file Aula16.msim.vcd -direction
$end
$date
	Fri Aug 23 12:21:21 2019
$end
$version
	ModelSim Version 10.1d
$end
$timescale
	1ps
$end
$scope module Projeto_vlg_vec_tst $end
$var reg 13 ! Binario [12:0] $end
$var reg 1 " Enable $end
$var wire 1 # Display1 [6] $end
$var wire 1 $ Display1 [5] $end
$var wire 1 % Display1 [4] $end
$var wire 1 & Display1 [3] $end
$var wire 1 ' Display1 [2] $end
$var wire 1 ( Display1 [1] $end
$var wire 1 ) Display1 [0] $end
$var wire 1 * Display2 [6] $end
$var wire 1 + Display2 [5] $end
$var wire 1 , Display2 [4] $end
$var wire 1 - Display2 [3] $end
$var wire 1 . Display2 [2] $end
$var wire 1 / Display2 [1] $end
$var wire 1 0 Display2 [0] $end
$var wire 1 1 Display3 [6] $end
$var wire 1 2 Display3 [5] $end
$var wire 1 3 Display3 [4] $end
$var wire 1 4 Display3 [3] $end
$var wire 1 5 Display3 [2] $end
$var wire 1 6 Display3 [1] $end
$var wire 1 7 Display3 [0] $end
$var wire 1 8 Display4 [6] $end
$var wire 1 9 Display4 [5] $end
$var wire 1 : Display4 [4] $end
$var wire 1 ; Display4 [3] $end
$var wire 1 < Display4 [2] $end
$var wire 1 = Display4 [1] $end
$var wire 1 > Display4 [0] $end
$var wire 1 ? sampler $end
$scope module i1 $end
$var wire 1 @ gnd $end
$var wire 1 A vcc $end
$var wire 1 B unknown $end
$var tri1 1 C devclrn $end
$var tri1 1 D devpor $end
$var tri1 1 E devoe $end
$var wire 1 F G2|BCD~5_combout $end
$var wire 1 G G2|BCD~19_combout $end
$var wire 1 H G2|BCD~117_combout $end
$var wire 1 I Enable~combout $end
$var wire 1 J G2|BCD~43_combout $end
$var wire 1 K G2|BCD~42_combout $end
$var wire 1 L G2|BCD~47_combout $end
$var wire 1 M G2|BCD~45_combout $end
$var wire 1 N G2|BCD~50_combout $end
$var wire 1 O G2|BCD~44_combout $end
$var wire 1 P G2|BCD~46_combout $end
$var wire 1 Q G2|BCD~49_combout $end
$var wire 1 R G2|BCD~57_combout $end
$var wire 1 S G2|BCD~55_combout $end
$var wire 1 T G2|BCD~65_combout $end
$var wire 1 U G2|BCD~51_combout $end
$var wire 1 V G2|BCD~56_combout $end
$var wire 1 W G2|BCD~66_combout $end
$var wire 1 X G2|BCD~67_combout $end
$var wire 1 Y G2|BCD~48_combout $end
$var wire 1 Z G2|BCD~39_combout $end
$var wire 1 [ G2|BCD~38_combout $end
$var wire 1 \ G2|BCD~40_combout $end
$var wire 1 ] G2|BCD~20_combout $end
$var wire 1 ^ G2|BCD~41_combout $end
$var wire 1 _ G2|BCD~111_combout $end
$var wire 1 ` G2|BCD~113_combout $end
$var wire 1 a G2|BCD~112_combout $end
$var wire 1 b G2|BCD~54_combout $end
$var wire 1 c G2|BCD~52_combout $end
$var wire 1 d G2|BCD~59_combout $end
$var wire 1 e G2|BCD~58_combout $end
$var wire 1 f G2|BCD~53_combout $end
$var wire 1 g G2|BCD~61_combout $end
$var wire 1 h G2|BCD~68_combout $end
$var wire 1 i G2|Add13~0_combout $end
$var wire 1 j G2|BCD~60_combout $end
$var wire 1 k G2|BCD~69_combout $end
$var wire 1 l G2|BCD~62_combout $end
$var wire 1 m G2|BCD~114_combout $end
$var wire 1 n G2|BCD~116_combout $end
$var wire 1 o G2|BCD~70_combout $end
$var wire 1 p G2|Add17~0_combout $end
$var wire 1 q G2|BCD~115_combout $end
$var wire 1 r G2|BCD~71_combout $end
$var wire 1 s G2|BCD~72_combout $end
$var wire 1 t G2|BCD~73_combout $end
$var wire 1 u G2|BCD~74_combout $end
$var wire 1 v G2|BCD~63_combout $end
$var wire 1 w G2|BCD~79_combout $end
$var wire 1 x G2|BCD~80_combout $end
$var wire 1 y G2|BCD~85_combout $end
$var wire 1 z G2|BCD~86_combout $end
$var wire 1 { G2|BCD~87_combout $end
$var wire 1 | G2|BCD~88_combout $end
$var wire 1 } G2|BCD~89_combout $end
$var wire 1 ~ G3|Y~0_combout $end
$var wire 1 !! G3|Y~1_combout $end
$var wire 1 "! G3|Y~2_combout $end
$var wire 1 #! G3|Y~3_combout $end
$var wire 1 $! G3|Y~4_combout $end
$var wire 1 %! G3|Y~5_combout $end
$var wire 1 &! G3|Y~6_combout $end
$var wire 1 '! G2|BCD~81_combout $end
$var wire 1 (! G2|BCD~82_combout $end
$var wire 1 )! G2|BCD~83_combout $end
$var wire 1 *! G2|BCD~84_combout $end
$var wire 1 +! G2|BCD~90_combout $end
$var wire 1 ,! G2|BCD~91_combout $end
$var wire 1 -! G2|BCD~64_combout $end
$var wire 1 .! G2|BCD~76_combout $end
$var wire 1 /! G2|BCD~77_combout $end
$var wire 1 0! G2|BCD~78_combout $end
$var wire 1 1! G2|BCD~96_combout $end
$var wire 1 2! G2|BCD~97_combout $end
$var wire 1 3! G2|BCD~98_combout $end
$var wire 1 4! G2|BCD~99_combout $end
$var wire 1 5! G2|BCD~100_combout $end
$var wire 1 6! G4|Y~0_combout $end
$var wire 1 7! G4|Y~1_combout $end
$var wire 1 8! G4|Y~2_combout $end
$var wire 1 9! G4|Y~3_combout $end
$var wire 1 :! G4|Y~4_combout $end
$var wire 1 ;! G4|Y~5_combout $end
$var wire 1 <! G4|Y~6_combout $end
$var wire 1 =! G2|BCD~75_combout $end
$var wire 1 >! G2|BCD~93_combout $end
$var wire 1 ?! G2|BCD~94_combout $end
$var wire 1 @! G2|BCD~95_combout $end
$var wire 1 A! G2|BCD~101_combout $end
$var wire 1 B! G2|BCD~102_combout $end
$var wire 1 C! G2|BCD~92_combout $end
$var wire 1 D! G2|BCD~104_combout $end
$var wire 1 E! G2|BCD~105_combout $end
$var wire 1 F! G2|BCD~106_combout $end
$var wire 1 G! G2|BCD~107_combout $end
$var wire 1 H! G5|Y~0_combout $end
$var wire 1 I! G5|Y~1_combout $end
$var wire 1 J! G5|Y~2_combout $end
$var wire 1 K! G5|Y~3_combout $end
$var wire 1 L! G5|Y~4_combout $end
$var wire 1 M! G5|Y~5_combout $end
$var wire 1 N! G5|Y~6_combout $end
$var wire 1 O! G2|BCD~103_combout $end
$var wire 1 P! G2|BCD~108_combout $end
$var wire 1 Q! G2|BCD~109_combout $end
$var wire 1 R! G2|BCD~110_combout $end
$var wire 1 S! G6|Y~0_combout $end
$var wire 1 T! G6|Y~1_combout $end
$var wire 1 U! G6|Y~2_combout $end
$var wire 1 V! G6|Y~3_combout $end
$var wire 1 W! G6|Y~4_combout $end
$var wire 1 X! G6|Y~5_combout $end
$var wire 1 Y! G6|Y~6_combout $end
$var wire 1 Z! G2|BCD_UNI [3] $end
$var wire 1 [! G2|BCD_UNI [2] $end
$var wire 1 \! G2|BCD_UNI [1] $end
$var wire 1 ]! G2|BCD_UNI [0] $end
$var wire 1 ^! G2|BCD_THO [3] $end
$var wire 1 _! G2|BCD_THO [2] $end
$var wire 1 `! G2|BCD_THO [1] $end
$var wire 1 a! G2|BCD_THO [0] $end
$var wire 1 b! G2|BCD_TEN [3] $end
$var wire 1 c! G2|BCD_TEN [2] $end
$var wire 1 d! G2|BCD_TEN [1] $end
$var wire 1 e! G2|BCD_TEN [0] $end
$var wire 1 f! G2|BCD_HUN [3] $end
$var wire 1 g! G2|BCD_HUN [2] $end
$var wire 1 h! G2|BCD_HUN [1] $end
$var wire 1 i! G2|BCD_HUN [0] $end
$var wire 1 j! Binario~combout [12] $end
$var wire 1 k! Binario~combout [11] $end
$var wire 1 l! Binario~combout [10] $end
$var wire 1 m! Binario~combout [9] $end
$var wire 1 n! Binario~combout [8] $end
$var wire 1 o! Binario~combout [7] $end
$var wire 1 p! Binario~combout [6] $end
$var wire 1 q! Binario~combout [5] $end
$var wire 1 r! Binario~combout [4] $end
$var wire 1 s! Binario~combout [3] $end
$var wire 1 t! Binario~combout [2] $end
$var wire 1 u! Binario~combout [1] $end
$var wire 1 v! Binario~combout [0] $end
$upscope $end
$upscope $end
$enddefinitions $end
#0
$dumpvars
b111 !
1"
0)
0(
0'
1&
1%
1$
1#
00
0/
0.
0-
0,
0+
1*
07
06
05
04
03
02
11
0>
0=
0<
0;
0:
09
18
x?
0@
1A
xB
1C
1D
1E
0F
0G
0H
1I
0J
0K
0L
0M
0N
0O
0P
0Q
0R
0S
0T
0U
0V
0W
1X
1Y
0Z
0[
0\
0]
0^
0_
1`
1a
0b
1c
1d
1e
1f
0g
1h
0i
1j
0k
1l
0m
1n
1o
0p
1q
0r
0s
1t
0u
0v
1w
1x
1y
1z
1{
0|
1}
1~
1!!
1"!
1#!
1$!
1%!
0&!
1'!
1(!
0)!
1*!
1+!
0,!
0-!
0.!
0/!
10!
11!
12!
03!
14!
15!
16!
17!
18!
19!
1:!
1;!
0<!
0=!
0>!
0?!
1@!
1A!
0B!
0C!
0D!
1E!
1F!
1G!
1H!
1I!
1J!
1K!
1L!
1M!
0N!
0O!
1P!
0Q!
1R!
1S!
1T!
1U!
0V!
0W!
0X!
0Y!
1]!
1\!
1[!
0Z!
0a!
0`!
0_!
0^!
0e!
0d!
0c!
0b!
0i!
0h!
0g!
0f!
1v!
1u!
1t!
0s!
0r!
0q!
0p!
0o!
0n!
0m!
0l!
0k!
0j!
$end
#50000
b10000111 !
b10000011 !
b10000001 !
b10000000 !
0v!
0u!
0t!
1o!
0?
0]!
0P!
0E!
1U
1Y!
1X!
1W!
1V!
0T!
0\!
0R!
1S
0W!
0V!
1T!
0S!
0[!
1T
0#
0$
0%
0&
1(
0Y!
1W!
1V!
1S!
1=!
1/!
0X
1%
1&
0(
1)
1?!
00!
0'!
1#
0%
0&
0)
1O!
02!
01!
1Q!
0A!
04!
1Z!
1d!
1i!
1Y!
1N!
0M!
0J!
0;!
0:!
09!
06!
0#
0*
1+
1.
12
13
14
17
#100000
b11000000 !
b11100000 !
b11110000 !
b11111000 !
b11111001 !
1v!
1s!
1r!
1q!
1p!
1?
1]!
1C!
0?!
0=!
0/!
1.!
0e
0T
1R
0W!
0O!
1D!
0C!
1>!
0w
1/!
0.!
1X
1-!
1R!
0Q!
1P!
0F!
1O!
1E!
0D!
0@!
0(!
1'!
1C!
1?!
0>!
10!
0/!
0X
1%
1[!
0Z!
1\!
1e!
0R!
0G!
1A!
13!
12!
11!
0O!
0C!
0'!
0Y!
0X!
0V!
0[!
0L!
1J!
1c!
0d!
1G!
1B!
1R!
0P!
1F!
1O!
0E!
1@!
03!
01!
0*!
1Y!
1V!
1[!
1M!
0I!
0c!
1b!
0\!
0e!
0R!
1Q!
0G!
0B!
14!
0+!
1#
1$
1&
1,
0.
1X!
0T!
0[!
1L!
1I!
1c!
0b!
1Z!
0i!
1h!
0#
0&
0+
1/
1T!
0L!
0K!
0H!
1<!
1:!
19!
08!
16!
0$
1(
0,
0/
0(
1,
1-
10
01
03
04
15
07
#150000
b111111001 !
b101111001 !
b101111011 !
b101110011 !
b101110010 !
0v!
1u!
0s!
0o!
1n!
0?
0]!
0Q!
0F!
0?!
0U
1\
1L
1W!
0Z!
1e!
0O!
0S
1Q
0Y!
1K!
0I!
1H!
1P!
1F!
1e
1W
0c
0R
0%
1\!
0e!
1w
1=!
0d
0-!
1#
0-
1/
00
1Y!
0X!
0U!
0K!
1I!
0H!
1(!
1>!
0x
1i
1/!
1X
02!
11!
1*!
1O!
1E!
0@!
1)!
1'!
1?!
0>!
00!
0i
0#
1$
1'
1-
0/
10
1G!
04!
1+!
1R!
0P!
0F!
13!
12!
0*!
0E!
1@!
0c!
1i!
0h!
1[!
0\!
1e!
0G!
0A!
0+!
0R!
0N!
0M!
1c!
0<!
0:!
09!
18!
06!
1h!
1X!
0W!
0V!
1U!
0S!
0[!
1d!
1H!
1<!
19!
16!
0Y!
1W!
1V!
1S!
1*
1+
11
13
14
05
17
0$
1%
1&
0'
1)
00
01
04
07
1#
0%
0&
0)
#200000
b101100010 !
b111100010 !
b111101010 !
b111101011 !
1v!
1s!
0r!
1o!
1?
1]!
1C!
0?!
0/!
1U
0X!
0W!
0V!
0S!
0O!
1D!
0C!
1S
1Q!
0D!
0e
0W
1$
1%
1&
1)
1Z!
0Q!
1P!
1F!
0w
1i
0=!
1Y!
1X!
1V!
1S!
0Z!
1\!
0e!
0)!
0'!
0y
1?!
10!
0X!
1N!
1M!
1L!
1K!
0I!
03!
02!
1*!
0z
1O!
0#
0$
0&
0)
1G!
1B!
1A!
14!
05!
1+!
0P!
0F!
1$
0*
0+
0,
0-
1/
0c!
1b!
0d!
0i!
1g!
0h!
0\!
1e!
0L!
1I!
1;!
09!
06!
0Y!
0V!
0S!
1,
0/
02
14
17
1#
1&
1)
#250000
b1111101011 !
b1111101111 !
b1011101111 !
b1011101101 !
b1001101101 !
b1001100101 !
b1001100100 !
0v!
0u!
1t!
0s!
0o!
0n!
1m!
0?
0]!
1Q!
1F!
1E!
0?!
0U
0\
0L
1O
1X!
1W!
1V!
1S!
1Z!
0e!
0Q!
1P!
0F!
0O!
0S
0Q
1M
1Y!
0Z!
1L!
1e!
1\!
1R!
0P!
1F!
1e
1W
1c
1R
1N
0$
0%
0&
0)
0X!
0L!
0e!
0U!
0\!
1[!
1w
0i
1=!
1d
1-!
0c
1V
0R
0#
0,
1L!
1X!
0W!
0V!
1U!
0S!
1)!
1'!
1y
1>!
1x
0=!
1/!
0X
0d
0-!
0e
0W
1T
1$
1,
1'
01!
0*!
1z
0E!
1D!
0@!
0)!
0'!
1C!
0>!
1i
0x
0w
1=!
0,
0$
1%
1&
0'
1)
0G!
0B!
04!
15!
0+!
1P!
0F!
11!
1*!
0D!
0(!
1'!
0y
0C!
1?!
00!
1c!
0b!
1i!
0g!
1h!
1\!
1e!
1G!
1+!
0R!
0P!
1F!
12!
0*!
0z
1O!
1E!
1@!
0L!
0I!
0c!
0;!
19!
16!
0h!
1W!
1V!
0T!
1S!
0\!
0e!
0[!
14!
05!
0+!
1P!
0F!
0N!
1L!
1I!
0<!
09!
06!
1h!
0Y!
1T!
1\!
1e!
0i!
1g!
1,
1/
12
04
07
0%
0&
1(
0)
1<!
1;!
1:!
19!
07!
16!
1Y!
0X!
0U!
0M!
0L!
0K!
0H!
1*
0,
0/
11
14
17
1#
0(
01
02
03
04
16
07
0#
1$
1'
1+
1,
1-
10
#300000
b1001000100 !
b1001010100 !
b1011010100 !
b1011011100 !
b1011011101 !
1v!
1s!
1r!
0q!
1o!
1?
1]!
1C!
0?!
0=!
0/!
1.!
1-!
1W
0T
0Y
0N
0W!
1U!
0O!
0E!
0@!
0C!
1>!
1=!
0.!
0f
1c
0V
1R
0P!
1F!
0A!
1D!
0>!
0j
1d
1e
0W
1%
0'
0\!
0e!
1d!
1R!
1P!
0F!
1E!
0D!
1@!
1x
1w
1k
0i
0=!
0Y!
0V!
0S!
1\!
1N!
1L!
1K!
0J!
1H!
1e!
1[!
0P!
1F!
1A!
1)!
1(!
1?!
10!
1S!
0\!
0L!
1J!
0e!
0d!
02!
01!
1O!
1#
1&
1)
0*
0,
0-
1.
00
1Y!
1X!
1V!
0T!
0N!
1M!
1L!
0A!
04!
0R!
1P!
0F!
0)
1,
0.
1d!
1i!
0[!
1\!
1e!
0#
0$
0&
1(
1*
0+
0,
1N!
0M!
0L!
0<!
0;!
0:!
09!
17!
0X!
1T!
0*
1+
1,
11
12
13
14
06
1$
0(
#350000
b1111011101 !
b1111011111 !
b1101011111 !
b1101010111 !
b1101010110 !
0v!
1u!
0s!
0o!
1n!
0?
0]!
1R!
0P!
0?!
1Y
1N
1L
1W!
0U!
1[!
0\!
0O!
1f
1\
0c
1V
0R
0Y
1U
0N
1X!
0W!
0V!
1U!
0S!
1P!
1F!
1j
0d
1^
0e
1W
0f
0\
1c
0V
1S
1R
0%
1'
1\!
0e!
0x
0w
0k
1i
0q
1=!
0^
0-!
0$
1%
1&
0'
1)
1W!
1V!
0T!
1S!
1L!
0J!
0)!
0(!
1v
1>!
1q
0j
1d
1/!
1X
13!
12!
11!
1*!
1z
1p
0E!
1D!
0@!
0v
1x
1w
0l
0h
0i
1?!
0>!
00!
1(!
0'!
0%
0&
1(
0)
0,
1.
1B!
1A!
15!
1+!
0t
0R!
1Q!
0P!
0F!
0z
0p
1'!
1y
0o
1O!
1E!
0D!
1@!
03!
02!
01!
1b!
0d!
0g!
0h!
1`!
0[!
1Z!
0\!
1e!
05!
1t
12!
0{
1z
1R!
0Q!
0B!
0A!
1M!
0b!
0L!
1J!
1d!
06!
1g!
1&!
0%!
0"!
0`!
1T!
1[!
0Z!
0G!
1A!
14!
15!
1,!
0M!
0d!
1<!
1;!
19!
07!
16!
0g!
0&!
1%!
1"!
0W!
0V!
0S!
1c!
0i!
1f!
0+
1,
0.
17
08
19
1<
0(
1M!
0I!
1:!
17!
1+
01
02
04
16
07
18
09
0<
1%
1&
1)
0+
1/
03
06
#400000
b1101000110 !
b1111000110 !
b1111001110 !
b1111001111 !
1v!
1s!
0r!
1o!
1?
1]!
1C!
0?!
0/!
0U
1Q
1V!
0T!
1S!
0O!
0E!
0@!
0C!
0c
0S
0R
0R!
1P!
1F!
0A!
1E!
1@!
0d
1e
0W
0&
1(
0)
0[!
1\!
0e!
1d!
1R!
1A!
0w
0=!
0X!
1T!
1[!
1L!
0d!
0(!
1?!
10!
0Y!
0V!
0L!
0K!
1I!
0H!
13!
11!
1O!
1$
0(
0,
0A!
04!
0P!
0F!
1#
1&
1,
1-
0/
10
1d!
1i!
0\!
1e!
0N!
0M!
1H!
0:!
1Y!
1X!
1V!
0T!
1*
1+
00
13
0#
0$
0&
1(
#450000
b11111001111 !
b10111001111 !
b10111001011 !
b10011001011 !
b10011001001 !
b10001001001 !
b10001001000 !
0v!
0u!
0t!
0o!
0n!
0m!
1l!
0?
0]!
0R!
1P!
0E!
1U
0Q
0L
1]
1Z
0O
1K
0V!
1T!
0S!
0[!
1\!
1Q!
0P!
1F!
1c
1S
1R
1Y
0U
1N
1P
0M
0X!
1W!
1V!
0U!
1S!
0\!
1Z!
0e!
1d
0e
1W
1f
0c
1V
0S
0R
0Y
1U
1Q
0N
1&
0(
1)
1X!
1U!
1N!
1M!
1L!
1K!
0I!
1w
1=!
1j
0d
1-!
0f
0V
1S
1$
0%
0&
1'
0)
1(!
0?!
00!
0x
0w
1l
1h
0=!
1/!
0X
0j
0-!
1e
0W
1T
0$
0'
0*
0+
0,
0-
1/
03!
01!
0O!
0(!
0y
1o
1i
1C!
1?!
10!
1x
0l
0h
1=!
1A!
14!
0Q!
13!
11!
1{
0z
1E!
0@!
0'!
1y
0o
0i
0?!
00!
0d!
0i!
0Z!
1G!
1B!
04!
05!
0,!
1R!
03!
02!
0*!
0{
1z
0E!
1D!
1@!
0L!
0K!
1I!
0H!
1:!
1i!
0Y!
0c!
1b!
1g!
0f!
1[!
14!
15!
0}
1P!
0F!
0:!
07!
0i!
1L!
1K!
1H!
0g!
1Y!
0W!
0V!
0S!
1a!
1\!
1e!
1,
1-
0/
10
03
1#
0<!
1:!
17!
0%!
0$!
0#!
0~
1W!
1V!
0T!
1S!
0L!
13
16
0,
0-
00
0#
1%
1&
1)
11
03
06
19
1:
1;
1>
0%
0&
1(
0)
1,
#500000
b10001000000 !
b10011000000 !
b10011000001 !
1v!
0s!
1o!
1?
1]!
0C!
1?!
0U
0Q
1N
0Y!
0X!
0W!
0V!
1T!
1O!
0D!
1V
0S
0R!
1Q!
0P!
1F!
1-!
0e
1W
0T
1#
1$
1%
1&
0(
0[!
1Z!
0\!
0e!
0=!
0x
1w
1i
1Y!
1X!
1V!
1L!
1C!
0?!
10!
1(!
1'!
0y
0O!
1D!
12!
1*!
0z
0#
0$
0&
0,
1R!
0Q!
1P!
0F!
0B!
0+!
1[!
0Z!
1\!
1e!
0b!
1h!
0Y!
0X!
0V!
0N!
0M!
0L!
0K!
0H!
1<!
0;!
08!
1#
1$
1&
1*
1+
1,
1-
10
01
12
15
#550000
b10010000001 !
b10010100001 !
b10010110001 !
b10110110001 !
b10110110011 !
b10110111011 !
b10100111011 !
b10100111010 !
0v!
1u!
1s!
1r!
1q!
0p!
0o!
1n!
0?
0]!
0R!
1Q!
0P!
1?!
1=!
0/!
0-!
0W
1T
0V
1S
1R
1U
1Q
0N
0`
1\
0P
1Y!
1X!
1W!
1V!
0T!
0[!
1Z!
0\!
1E!
0D!
0@!
0C!
0?!
00!
0=!
1.!
1-!
0T
0S
1^
1Y
0U
0Q
1T!
1R!
0Q!
1P!
1F!
0A!
0E!
1@!
01!
1>!
0.!
1e
1W
0q
1d
1f
1c
0R
0#
0$
0%
0&
1(
1[!
0Z!
1\!
0e!
1d!
0R!
0G!
1A!
1O!
1E!
0@!
1?!
0>!
10!
1x
1l
1k
1h
1=!
1v
1q
1j
1g
0-!
0(
0T!
0[!
1N!
1L!
1K!
0J!
1H!
0d!
1c!
1R!
0P!
0F!
0A!
0E!
1@!
11!
1)!
0v
1o
1p
0i
0?!
00!
1z
0x
0w
0l
0k
0h
1/!
1X
0X!
0U!
1T!
1[!
1M!
0L!
0K!
1J!
0H!
1d!
0\!
1e!
0R!
1G!
1A!
13!
0*!
1{
0z
0p
0t
0O!
1,!
1+!
1}
0)!
0'!
0o
1i
1C!
1(
0*
0,
0-
1.
00
1X!
0W!
0V!
1U!
0S!
0[!
0N!
0M!
1H!
0d!
0c!
0G!
0A!
04!
05!
0,!
0+!
1t
1`!
1P!
1F!
1f!
0h!
0a!
03!
02!
01!
1*!
0{
1D!
1$
1'
0(
0+
1,
1-
0.
10
0Y!
1W!
1V!
1S!
0H!
1d!
1c!
1i!
1g!
0f!
1h!
0`!
1&!
1$!
1#!
0"!
1~
1\!
0e!
1;!
18!
1G!
15!
0}
1Q!
0P!
0F!
0$
1%
1&
0'
1)
1*
1+
00
1N!
1M!
1L!
1K!
0I!
1H!
0c!
0<!
0;!
0:!
09!
0g!
0&!
1%!
1"!
1Y!
0X!
0U!
0\!
1e!
1a!
1Z!
1#
0%
0&
0)
10
08
0:
0;
1<
0>
02
05
0M!
0L!
1I!
1<!
19!
1X!
1U!
0%!
0$!
0#!
0~
0*
0+
0,
0-
1/
00
11
12
13
14
18
09
0<
0#
1$
1'
1+
1,
0/
01
04
0$
0'
19
1:
1;
1>
#600000
b10100110010 !
b10110110010 !
b10110110011 !
1v!
0s!
1o!
1?
1]!
0C!
1?!
1U
0W!
1O!
0D!
1S
0Q!
0e
0W
1%
0Z!
1x
1w
1k
0i
0=!
0Y!
0X!
0V!
0S!
0(!
1C!
0?!
10!
12!
0*!
0O!
1D!
1#
1$
1&
1)
0G!
1A!
14!
05!
1+!
1Q!
1c!
0d!
0i!
1g!
0h!
1Z!
1M!
0I!
1;!
09!
06!
1Y!
1X!
1V!
1S!
0+
1/
02
14
17
0#
0$
0&
0)
#650000
b11110110011 !
b11110110111 !
b11110100111 !
b11010100111 !
b11010100101 !
b11010101101 !
b11000101101 !
b11000101100 !
0v!
0u!
1t!
1s!
0r!
0o!
0n!
1m!
0?
0]!
1R!
0Q!
1P!
0D!
0@!
1?!
0/!
0U
1`
0\
1P
1[
1O
1G
1W!
1[!
0Z!
1\!
0R!
0P!
1F!
0A!
1O!
0C!
0S
0Y
1U
1Q
0`
0P
1L
0T!
0[!
0\!
0e!
1d!
1Q!
1E!
1@!
1e
1W
0f
0^
1\
0c
1R
1Y
0U
0%
0Y!
1T!
1L!
1Z!
0Q!
1P!
0F!
1A!
0x
0w
0k
1i
1=!
0j
0g
0d
1^
1-!
1f
0\
1c
1V
0R
1(
1Y!
0Z!
1\!
1e!
0d!
1(!
0?!
00!
1x
0i
1j
1g
1d
0=!
1/!
0X
0-!
0e
0W
1T
1#
0(
0,
0X!
0U!
0L!
02!
1*!
0O!
0(!
1y
1w
1k
1C!
1?!
10!
1=!
0#
1G!
0A!
04!
15!
0+!
1R!
0P!
1F!
12!
0*!
1z
1)!
1(!
1'!
0y
1O!
0E!
0@!
0?!
00!
1$
1'
1,
0c!
1d!
1i!
0g!
1h!
1[!
0\!
0e!
0G!
14!
1+!
13!
11!
0z
0R!
1Q!
0O!
0M!
1L!
0J!
1I!
1c!
0;!
19!
16!
0i!
0h!
1X!
0W!
0V!
1U!
0S!
0[!
1G!
1B!
1A!
04!
05!
1Z!
0Q!
1M!
1J!
0I!
0c!
0<!
1;!
1:!
1i!
1W!
1V!
1S!
1b!
0d!
1g!
0Z!
1+
0,
1.
0/
12
04
07
0$
1%
1&
0'
1)
1I!
1<!
0:!
07!
0Y!
0+
0.
1/
11
02
03
0%
0&
0)
0/
01
13
16
1#
#700000
b11000100100 !
b11010100100 !
b11010100101 !
1v!
0s!
1o!
1?
1]!
0C!
1?!
1U
0X!
0W!
0V!
0S!
1O!
1E!
1@!
0c
0V
1R
1P!
0F!
0G!
0B!
0A!
0q
0g
1-!
1e
1W
0T
1$
1%
1&
1)
1\!
1e!
1c!
0b!
1d!
1v
1l
0k
1h
0=!
1i
1Y!
1V!
1S!
0N!
0M!
0L!
0K!
1z
1p
1o
0)!
0'!
1y
0i
1C!
0?!
10!
15!
0t
1|
1{
0p
03!
02!
1*!
0O!
0E!
0@!
0#
0&
0)
1*
1+
1,
1-
0g!
1`!
05!
0+!
1t
1G!
1A!
0P!
1F!
0<!
0;!
09!
17!
06!
1g!
1&!
1#!
1~
0`!
1h!
0c!
0d!
0\!
0e!
16!
0&!
0#!
0~
1M!
1L!
1K!
0Y!
0V!
0S!
11
12
14
06
17
08
0;
0>
07
18
1;
1>
0+
0,
0-
1#
1&
1)
#750000
b11010000101 !
b11010010101 !
b11110010101 !
b11110010111 !
b11110011111 !
b11100011111 !
b11100011110 !
0v!
1u!
1s!
1r!
0q!
0o!
1n!
0?
0]!
1P!
1?!
1=!
0/!
0W
0U
1\
1M
0L
1X!
1W!
1V!
1S!
1\!
1O!
0C!
0?!
00!
0=!
1c
1V
0R
0Q
1N
1Y!
0X!
0U!
0P!
0F!
0O!
1E!
1@!
01!
1?!
10!
1q
1g
0e
1W
0c
0V
1S
1R
0$
0%
0&
0)
0\!
1e!
1R!
1P!
1F!
0A!
1O!
11!
0v
0l
1k
0h
1=!
0q
0g
0-!
0#
1$
1'
0Y!
1X!
1U!
1\!
0M!
0L!
0K!
0H!
0e!
1[!
1d!
0P!
0F!
1B!
1A!
14!
0|
1v
0o
1)!
1'!
0y
0?!
00!
0w
1l
0k
1h
1/!
1X
1Y!
0T!
0\!
1N!
1L!
1K!
0J!
1H!
1e!
0d!
1b!
0i!
15!
1+!
1}
0{
1p
13!
12!
0*!
0O!
0)!
0(!
1y
1o
1C!
1#
0$
0'
1+
1,
1-
10
0W!
0V!
1T!
0S!
1M!
0L!
1J!
1<!
1;!
1:!
19!
07!
0g!
0h!
0a!
0}
0t
0G!
0B!
0A!
04!
1P!
1F!
03!
1|
1{
0p
0E!
0@!
0#
1(
0*
0,
0-
1.
00
0<!
17!
1%!
1$!
1#!
1~
1a!
1`!
1c!
0b!
1d!
1i!
1\!
0e!
1G!
14!
1,!
1t
0R!
1%
1&
0(
1)
0+
1,
0.
01
02
03
04
16
1&!
0%!
0$!
0`!
1L!
0I!
0c!
0;!
0:!
09!
06!
0i!
1W!
1V!
0T!
1S!
1f!
0[!
11
06
09
0:
0;
0>
0&!
0#!
0~
0M!
0J!
1I!
1<!
1;!
1:!
19!
16!
0X!
0U!
1T!
08
19
1:
0,
1/
12
13
14
17
0%
0&
1(
0)
18
1;
1>
1+
1.
0/
01
02
03
04
07
1$
1'
0(
#800000
b11100010110 !
b11110010110 !
b11110010111 !
1v!
0s!
1o!
1?
1]!
0C!
1?!
0Y
0N
0W!
1U!
1O!
1E!
1@!
0f
1c
0S
0R
1R!
0P!
0F!
1A!
0d
1e
0W
1%
0'
1[!
0\!
1e!
0d!
0x
1w
0=!
1X!
0T!
0N!
0L!
0K!
1J!
0H!
1)!
1(!
1C!
0?!
10!
02!
01!
0O!
0E!
0@!
0$
1(
1*
1,
1-
0.
10
0G!
04!
0R!
1P!
1F!
1c!
1i!
0[!
1\!
0e!
1N!
1M!
0:!
0X!
1T!
0*
0+
13
1$
0(
