MEM/simulation/qsim/MEM.msim.vcd
$comment
	File created using the following command:
		vcd file MEM.msim.vcd -direction
$end
$date
	Sun Aug 11 21:44:36 2019
$end
$version
	ModelSim Version 10.1d
$end
$timescale
	1ps
$end
$scope module MEM_vlg_vec_tst $end
$var reg 1 ! Endereco [0:0] $end
$var reg 1 " Escrita $end
$var reg 1 # Leitura $end
$var reg 2 $ RDMEntrada [1:0] $end
$var reg 2 % REMEntrada [1:0] $end
$var wire 1 & Saida [1] $end
$var wire 1 ' Saida [0] $end
$var wire 1 ( sampler $end
$scope module i1 $end
$var wire 1 ) gnd $end
$var wire 1 * vcc $end
$var wire 1 + unknown $end
$var tri1 1 , devclrn $end
$var tri1 1 - devpor $end
$var tri1 1 . devoe $end
$var wire 1 / Escrita~combout $end
$var wire 1 0 Leitura~combout $end
$var wire 1 1 auxSaida~0_combout $end
$var wire 1 2 auxSaida[0]~1_combout $end
$var wire 1 3 Saida~0_combout $end
$var wire 1 4 auxSaida[2]~2_combout $end
$var wire 1 5 Saida~1_combout $end
$var wire 1 6 auxSaida [3] $end
$var wire 1 7 auxSaida [2] $end
$var wire 1 8 auxSaida [1] $end
$var wire 1 9 auxSaida [0] $end
$var wire 1 : RDMEntrada~combout [1] $end
$var wire 1 ; RDMEntrada~combout [0] $end
$var wire 1 < Endereco~combout [0] $end
$upscope $end
$upscope $end
$enddefinitions $end
#0
$dumpvars
b0 !
0"
0#
b0 $
bx %
0'
0&
x(
0)
1*
x+
1,
1-
1.
0/
00
01
02
03
04
05
09
08
07
z6
0;
0:
0<
$end
#30000
b1 $
1;
0(
12
#49000
1"
1/
1(
19
#60000
b11 $
b10 $
0;
1:
0(
02
11
#90000
b11 $
1;
1(
12
#98000
0"
0/
0(
#120000
b1 $
b0 $
0;
0:
1(
02
01
#123000
1#
10
0(
13
1'
#147000
1"
1/
1(
09
03
0'
#150000
b1 $
1;
0(
12
#180000
b11 $
b10 $
0;
1:
1(
02
11
#196000
0"
0/
0(
#210000
b11 $
1;
1(
12
#240000
b1 $
b0 $
0;
0:
0(
02
01
#245000
1"
1/
1(
#246000
0#
00
0(
#270000
b1 $
1;
1(
12
#294000
0"
0/
0(
#300000
b11 $
b10 $
0;
1:
1(
02
11
#330000
b11 $
1;
0(
12
#343000
1"
1/
1(
19
18
#360000
b1 $
b0 $
0;
0:
0(
02
01
#369000
1#
10
1(
15
13
1&
1'
#390000
b1 $
1;
0(
12
#392000
0"
0/
1(
#420000
b11 $
b10 $
0;
1:
0(
02
11
#441000
1"
1/
1(
09
03
0'
#450000
b11 $
1;
0(
12
#480000
b1 $
b0 $
0;
0:
1(
02
01
#490000
0"
0/
0(
#492000
0#
00
1(
05
0&
#500000
b1 !
1<
0(
#510000
b1 $
1;
1(
11
#539000
1"
1/
0(
#540000
b11 $
b10 $
0;
1:
1(
01
14
#570000
b11 $
1;
0(
11
#588000
0"
0/
1(
#600000
b1 $
b0 $
0;
0:
0(
01
04
#615000
1#
10
1(
13
1'
#630000
b1 $
1;
0(
11
#637000
1"
1/
1(
#660000
b11 $
b10 $
0;
1:
0(
01
14
#686000
0"
0/
1(
#690000
b11 $
1;
0(
11
#720000
b1 $
b0 $
0;
0:
1(
01
04
#735000
1"
1/
0(
08
03
0'
#738000
0#
00
1(
#750000
b1 $
1;
0(
11
#780000
b11 $
b10 $
0;
1:
1(
01
14
#784000
0"
0/
0(
#810000
b11 $
1;
1(
11
#833000
1"
1/
0(
17
18
#840000
b1 $
b0 $
0;
0:
1(
01
04
#861000
1#
10
0(
15
13
1&
1'
#870000
b1 $
1;
1(
11
#882000
0"
0/
0(
#900000
b11 $
b10 $
0;
1:
1(
01
14
#930000
b11 $
1;
0(
11
#931000
1"
1/
1(
#960000
b1 $
b0 $
0;
0:
0(
01
04
#980000
0"
0/
1(
#984000
0#
00
0(
05
03
0&
0'
#990000
b1 $
1;
1(
11
